{
  "firstRun_acceptableAdsExplanation": {
    "message": "Wy wolle graach dat websiden simpele net skreauwende advertinsjes brûke. Derom hawwe wy <a>stringe regels</a> om akseptabele advertinsjes te werkennen.  Dit stiet ûnder standert settings. Ast noch steeds alle advertinsjes blokkeare wolst, dan kist dat <a>Út sette</a> yn in pear sekonden."
  },
  "firstRun_acceptableAdsHeadline": {
    "message": "ferfelende advertinsjes wurde no tsjin hâlden"
  },
  "firstRun_contributor_credits": {
    "message": "Meiwurker Nammen"
  },
  "firstRun_dataCorruptionWarning": {
    "message": "Bliuwst dizze side sjen? <a>Klik hjir!</a>"
  },
  "firstRun_donate": {
    "message": "Donneare"
  },
  "firstRun_donate_label": {
    "message": "Support ús projekt"
  },
  "firstRun_feature_malware": {
    "message": "Troep blokkeare"
  },
  "firstRun_feature_malware_description": {
    "message": "Meitsje dyn browser mear feiliger troch it blokkearen fan bekende  rotsoai domeinen."
  },
  "firstRun_feature_social": {
    "message": "Sociale Media knop fuorthelje"
  },
  "firstRun_feature_social_description": {
    "message": "Meitsje dyn ynternetten moaier  en helje automatysk  de knoppen furt as de Facebook Like, dy't op websiden stean om dyn gedrach by te hâlden."
  },
  "firstRun_feature_tracking": {
    "message": "Folgje út"
  },
  "firstRun_feature_tracking_description": {
    "message": "Ynternette mear privaat troch it útsetten fan tracking.  Ferstopje dyn surf gedrach fan reklame bedriuwen dy't dy graach in de gaten wolle hâlde."
  },
  "firstRun_features": {
    "message": "Adblock kin mear dwaan dan advertinsjes stopje"
  },
  "firstRun_filterlistsReinitializedWarning": {
    "message": "It liket der op dat der in probleem wie wer troch alle filters fuorthelle wurden en it ûnmooglik wie om in backup werom te setten. Hjirfoar hawwe wie jo filters en Akseptabele Advertinsjes opnij ynstelt.  Kontrolear jo ynstellingen in de <a>Adblock Plus Opties</a>."
  },
  "firstRun_legacySafariWarning": {
    "message": "Do brûkst in âlde fersy fan Safari dy net mear troch Adblock Plus understeunt wurdt. Miskien wurket it net goed of liket it soms wat raar. Wij adviseare om Safari 6.1.1 of heger (op OS X 10.8 Mountain Lion), of Safari 7.0.1 of heger (op OS X 10.9 Mavericks) te brûken, of de lêste fersy van Mozilla Firefox, Google Chrome of Opera."
  },
  "firstRun_share": {
    "message": "sis it tsjin freonen"
  },
  "firstRun_share_headline": {
    "message": "<a>Jou ús in hantsje</a>  om it web in moaiere plak te meitsjen"
  },
  "firstRun_title": {
    "message": "Adblock is no ynstalleare"
  },
  "firstRun_toggle_off": {
    "message": "út"
  },
  "firstRun_toggle_on": {
    "message": "Oan"
  }
}
