{
  "add": {
    "message": "Dodaj"
  },
  "add_domain_button": {
    "message": "Dodaj domenu"
  },
  "add_filter_button": {
    "message": "Dodaj filter"
  },
  "add_filters_msg": {
    "message": "Dodaj filter(e)?"
  },
  "add_your_own_filters": {
    "message": "Dodaj vlastite filtere"
  },
  "apply_changes": {
    "message": "Primjeni promjene"
  },
  "block_element": {
    "message": "Blokiraj element"
  },
  "cancel": {
    "message": "Poništi"
  },
  "clickhide_instructions": {
    "message": "Nakon zatvaranja ovog skočnog prozora, kliknite (ili desni klik miša) na element na ovoj stranici."
  },
  "description": {
    "message": "Adblock Plus je najpopularniji program za uklanjanje reklama - koristi se na gotovo 100 milijuna uređaja."
  },
  "disabled_for_site": {
    "message": "<strong>Onemogućeno</strong> na ovoj stranici"
  },
  "disabled_for_these_domains": {
    "message": "Adblock Plus je onemogućen za domene na popisu ispod. Možete dodati domenu ili pomoću Adblock Plus ikone u adresnoj traci ili upisivanjem domene (ne URL-a) u polju ispod i klikom na tipku \"Dodaj domenu\"."
  },
  "easy_create_filter": {
    "message": "Blokiraj element"
  },
  "edit_filters_raw": {
    "message": "Uredi filtere kao običan tekst"
  },
  "enable_only_the": {
    "message": "Omogućite samo popis filtra koji vam je potreban. Previše popisa filtra može učiniti vaš preglednik neupotrebljivim."
  },
  "enabled_for_site": {
    "message": "<strong>Omogućeno</strong> na ovoj stranici"
  },
  "filter_lists": {
    "message": "Popisi filtera"
  },
  "filter_must_follow_syntax": {
    "message": "Vaš filter mora slijediti <a>Adblock Plus filter sintaksu</a>."
  },
  "firstRun_acceptableAdsExplanation": {
    "message": "Želimo podupirati web stranice da koriste pošteno, nenametljivo reklamiranje. Zato smo uspostavili <a>točne smjernice</a> za prepoznavanje reklama, koje su prikazane prema uobičajenim postavkama. Ako još uvijek želite blokirati svaku reklamu to možete <a>onemogućiti</a> za nekoliko sekuondis."
  },
  "firstRun_acceptableAdsHeadline": {
    "message": "Naporni oglasi će sada biti blokirani"
  },
  "firstRun_contributor_credits": {
    "message": "Zasluge doprinositelja"
  },
  "firstRun_dataCorruptionWarning": {
    "message": "Nastavlja li se ova stranica pojavljivati? <a>Kliknite ovdje!</a>"
  },
  "firstRun_donate": {
    "message": "donirajte"
  },
  "firstRun_donate_label": {
    "message": "Podržite naš projekt"
  },
  "firstRun_feature_malware": {
    "message": "Blokiranje malwara"
  },
  "firstRun_feature_malware_description": {
    "message": "Učinite vaše surfanje Internetom sigurnijim blokiranjem poznatih malvare domena."
  },
  "firstRun_feature_social": {
    "message": "Uklanjanje tipki društvenih mreža"
  },
  "firstRun_feature_social_description": {
    "message": "Automatski oslobodite svoje surfanje internetom od napornih tipki društvenih mreža poput Facebook 'Sviđa mi se' tipke, koji se pojavljuju na web stranicama i prati vaše ponašanje."
  },
  "firstRun_feature_tracking": {
    "message": "Onemogućavanje praćenja"
  },
  "firstRun_feature_tracking_description": {
    "message": "Surfajte privatno tako što ćete onemogućiti praćenje - skrivanjem od reklamnih kompanija koje prate vaš svaki pokret."
  },
  "firstRun_features": {
    "message": "Adblock Plus može učiniti mnogo više nego samo blokirati reklame"
  },
  "firstRun_filterlistsReinitializedWarning": {
    "message": "Izgleda da je greška uzrokovala uklanjanje svih filtra, a mi smo u nemogućnosti da ih vratimo. Zato smo postavili na početne postavke vaših filtra i prihvatljivih reklama. Provjerite postavke vaših popisa filtra i prihvatljivih reklama u <a>Adblock Plus mogućnostima</a>."
  },
  "firstRun_legacySafariWarning": {
    "message": "Koristite stariju inačicu Safarija koja ne podržava Adblock Plus. Možda neće ispravno raditi ili može narušiti korisničko iskustvo na nekim web stranicama. Stoga vam preporučamo nadogradnju na Safari 6.1.1 ili noviju inačicu (dostupnu za Mac OS X 10.8 Mountain Lion), ili Safari 7.0.1 ili noviju inačicu (za OS X 10.9 Mavericks), ili koristite najnoviju inačicu Mozilla Firefoxa, Google Chroma ili Opere."
  },
  "firstRun_share": {
    "message": "Recite svojim prijateljima"
  },
  "firstRun_share_headline": {
    "message": "<a>Pomognite nam</a> pri stvaranju Interneta boljim mjestom"
  },
  "firstRun_title": {
    "message": "Adblock Plus je instaliran"
  },
  "firstRun_toggle_off": {
    "message": "ISKLJUČI"
  },
  "firstRun_toggle_on": {
    "message": "UKLJUČI"
  },
  "found_a_bug": {
    "message": "Pronašli ste grešku? Želite prevesti Adblock Plus na svoj jezik? <a>Podnesite zahtjev ovdje</a>."
  },
  "general": {
    "message": "Općenito"
  },
  "invalid_css_selector": {
    "message": "$selector$ nije ispravan CSS selektor",
    "placeholders": {
      "selector": {
        "content": "$1"
      }
    }
  },
  "last_updated_at": {
    "message": "Posljednji put je ažurirano $date$ u $time$",
    "placeholders": {
      "date": {
        "content": "$2"
      },
      "time": {
        "content": "$1"
      }
    }
  },
  "last_updated_at_today": {
    "message": "Posljednj put je ažurirano danas u $time$",
    "placeholders": {
      "time": {
        "content": "$1"
      }
    }
  },
  "line": {
    "message": "Linija $number$",
    "placeholders": {
      "number": {
        "content": "$1"
      }
    }
  },
  "name_devbuild": {
    "message": "Adblock Plus razvojna inačica"
  },
  "notification_configure": {
    "message": "Podesi postavke obavijesti"
  },
  "notification_open_all": {
    "message": "Otvori sve linkove iz ove obavijesti"
  },
  "notification_with_buttons": {
    "message": "Kliknite 'U redu' za otvaranje svih poveznica u ovoj obavijesti."
  },
  "notification_without_buttons": {
    "message": "Kliknite na obavijest za otvaranje svih poveznica koje sadrži."
  },
  "options": {
    "message": "Adblock Plus mogućnosti"
  },
  "options_short": {
    "message": "Mogućnosti"
  },
  "out_of_date_lists": {
    "message": "Zastarjeli popisi redovito se ažuriraju."
  },
  "remove_button": {
    "message": "Ukloni odabrano"
  },
  "show_block_element_menu": {
    "message": "Prikaži 'Blokiraj element' stavku izbornika desnog klika"
  },
  "show_devtools_panel": {
    "message": "Prikaži 'Adblock Plus' ploču u razvojnim alatima"
  },
  "stats_label_page": {
    "message": "<strong>$number$</strong> na ovoj stranici",
    "placeholders": {
      "number": {
        "content": "$1"
      }
    }
  },
  "stats_label_total": {
    "message": "<strong>$number$</strong> ukupno",
    "placeholders": {
      "number": {
        "content": "$1"
      }
    }
  },
  "stats_over": {
    "message": "preko $number$",
    "placeholders": {
      "number": {
        "content": "$1"
      }
    }
  },
  "stats_share_download": {
    "message": "Preuzmi Adblock Plus"
  },
  "stats_share_message": {
    "message": "Blokirao sam $number$ reklama i pratitelja zahvaljujući Adblock Plusu.",
    "placeholders": {
      "number": {
        "content": "$1"
      }
    }
  },
  "stats_share_title": {
    "message": "Podijeli ovaj broj"
  },
  "stats_show_iconnumber": {
    "message": "Prikaži broj na ikoni"
  },
  "stats_title": {
    "message": "Blokirano reklama"
  },
  "subscriptionSelection_subscriptionSelector_label": {
    "message": "Molimo odaberite pretplatu na filter sa popisa:"
  },
  "unexpected_filter_list_header": {
    "message": "Zaglavlja filter listi nisu dozvoljena ovdje"
  },
  "update_now": {
    "message": "Ažuriraj odmah"
  },
  "whitelisted_domains": {
    "message": "Dopuštene domene"
  }
}
